…
``` r
wine_ratings %>% 
  count(country, sort = T) # typical wine countries
```

    ## # A tibble: 44 x 2
    ##    country       n
    ##    <chr>     <int>
    ##  1 US        54504
    ##  2 France    22093
    ##  3 Italy     19540
    ##  4 Spain      6645
    ##  5 Portugal   5691
    ##  6 Chile      4472
    ##  7 Argentina  3800
    ##  8 Austria    3345
    ##  9 Australia  2329
    ## 10 Germany    2165
    ## # … with 34 more rows

``` r
wine_ratings %>% 
  count(designation, sort = T) # anytime a categorical data, count it!
```

    ## # A tibble: 37,980 x 2
    ##    designation       n
    ##    <chr>         <int>
    ##  1 <NA>          37465
    ##  2 Reserve        2009
    ##  3 Estate         1322
    ##  4 Reserva        1259
    ##  5 Riserva         698
    ##  6 Estate Grown    621
    ##  7 Brut            513
    ##  8 Dry             413
    ##  9 Barrel sample   375
    ## 10 Crianza         343
    ## # … with 37,970 more rows

``` r
wine_ratings %>% 
  count(country, region_1, sort = T) # not meaningful to count region without country
```

    ## # A tibble: 1,273 x 3
    ##    country   region_1                 n
    ##    <chr>     <chr>                <int>
    ##  1 Portugal  <NA>                  5691
    ##  2 US        Napa Valley           4480
    ##  3 Chile     <NA>                  4472
    ##  4 US        Columbia Valley (WA)  4124
    ##  5 Austria   <NA>                  3345
    ##  6 US        Russian River Valley  3091
    ##  7 US        California            2629
    ##  8 US        Paso Robles           2350
    ##  9 Argentina Mendoza               2301
    ## 10 US        Willamette Valley     2301
    ## # … with 1,263 more rows
…
``` r
wine_ratings %>% 
  count(variety,  sort = T) 
```

    ## # A tibble: 708 x 2
    ##    variety                      n
    ##    <chr>                    <int>
    ##  1 Pinot Noir               13272
    ##  2 Chardonnay               11753
    ##  3 Cabernet Sauvignon        9472
    ##  4 Red Blend                 8946
    ##  5 Bordeaux-style Red Blend  6915
    ##  6 Riesling                  5189
    ##  7 Sauvignon Blanc           4967
    ##  8 Syrah                     4142
    ##  9 Rosé                      3564
    ## 10 Merlot                    3102
    ## # … with 698 more rows

``` r
wine_ratings %>% 
  filter(!is.na(designation)) %>% 
  count(variety,  designation, sort = T) 
```

    ## # A tibble: 47,432 x 3
    ##    variety                  designation       n
    ##    <chr>                    <chr>         <int>
    ##  1 Cabernet Sauvignon       Reserve         475
    ##  2 Chardonnay               Reserve         327
    ##  3 Bordeaux-style Red Blend Barrel sample   300
    ##  4 Pinot Noir               Reserve         282
    ##  5 Sangiovese               Riserva         266
    ##  6 Sparkling Blend          Brut            235
    ##  7 Riesling                 Dry             231
    ##  8 Bordeaux-style Red Blend Barrel Sample   223
    ##  9 Pinot Noir               Estate          208
    ## 10 Tempranillo              Crianza         194
    ## # … with 47,422 more rows

``` r
wine_ratings %>% 
  count(winery,  sort = T) 
```

    ## # A tibble: 16,757 x 2
    ##    winery                    n
    ##    <chr>                 <int>
    ##  1 Wines & Winemakers      222
    ##  2 Testarossa              218
    ##  3 DFJ Vinhos              215
    ##  4 Williams Selyem         211
    ##  5 Louis Latour            199
    ##  6 Georges Duboeuf         196
    ##  7 Chateau Ste. Michelle   194
    ##  8 Concha y Toro           164
    ##  9 Columbia Crest          159
    ## 10 Kendall-Jackson         130
    ## # … with 16,747 more rows
…
wine_rating_words <- wine_rating_words %>% 
  filter(!word %in% c("wine", "drink"))
```

``` r
wine_rating_words %>% 
  count(word, sort = T)
```

    ## # A tibble: 32,799 x 2
    ##    word        n
    ##    <chr>   <int>
    ##  1 flavors 62791
    ##  2 fruit   49927
    ##  3 aromas  39639
    ##  4 palate  38437
    ##  5 acidity 34999
    ##  6 finish  34971
    ##  7 tannins 30877
    ##  8 cherry  29321
    ##  9 black   29020
    ## 10 ripe    27375
    ## # … with 32,789 more rows
